COVID-19 associated microbiome • Reviews of published signatures based on bugsigdb.org
…
Table of studies

bugSigSimple::createStudyTable(covid_all)

## # A tibble: 44 × 5
##    Study          Condition Cases Controls `Study Design`                       
##    <chr>          <chr>     <dbl>    <dbl> <chr>                                
##  1 Bellato 2023   COVID-19    156       36 cross-sectional observational, not c…
##  2 Braun 2021     COVID-19     26       29 cross-sectional observational, not c…
##  3 Cao 2021       COVID-19     13        8 case-control                         
##  4 Chen 2021      COVID-19     30       30 time series / longitudinal observati…
##  5 De 2020        COVID-19     18       22 cross-sectional observational, not c…
##  6 Engen 2021     COVID-19      9       10 cross-sectional observational, not c…
##  7 Gaibani 2021   COVID-19     24       24 case-control                         
##  8 Galperine 2023 COVID-19     57       43 time series / longitudinal observati…
##  9 Gao 2021       COVID-19     94       48 prospective cohort                   
## 10 Gu 2020        COVID-19     30       30 cross-sectional observational, not c…
## # ℹ 34 more rows
…
